Untitled
…
## -- Conflicts ------------------------------------------ tidyverse_conflicts() --
## x dplyr::filter() masks stats::filter()
## x dplyr::lag()    masks stats::lag()

library(ggplot2)
#install.packages('readXl')
data1 <- readxl::read_xls("C:\\Users\\samue\\OneDrive\\Documents\\GSS.xls")

## Warning in read_fun(path = enc2native(normalizePath(path)), sheet_i = sheet, :
## Expecting numeric in A64817 / R64817C1: got 'Source'

data1

## # A tibble: 64,816 x 10
##    `Gss year for this ~ `General happine~ `Political party af~ `Region of inter~
##                   <dbl> <chr>             <chr>                <chr>            
##  1                 1972 Not too happy     Ind,near dem         E. nor. central  
##  2                 1972 Not too happy     Not str democrat     E. nor. central  
##  3                 1972 Pretty happy      Independent          E. nor. central  
##  4                 1972 Not too happy     Not str democrat     E. nor. central  
##  5                 1972 Pretty happy      Strong democrat      E. nor. central  
##  6                 1972 Pretty happy      Ind,near dem         E. nor. central  
##  7                 1972 Not too happy     Ind,near dem         E. nor. central  
##  8                 1972 Not too happy     Ind,near dem         E. nor. central  
##  9                 1972 Pretty happy      Strong democrat      W. sou. central  
## 10                 1972 Pretty happy      Strong democrat      W. sou. central  
## # ... with 64,806 more rows, and 6 more variables: Race of respondent <chr>,
## #   Respondents sex <chr>, Highest year of school completed <chr>,
## #   Marital status <chr>, Respondent id number <dbl>,
## #   Ballot used for interview <chr>
…
